{
	"headers": [
		{
			"title": "Article",
			"cssClasses": "has-text-left"
		},
		{ 
			"title": "Quantité",
			"cssClasses": "has-text-centered"
		},
		{
			"title": "Prix unitaire",
			"cssClasses": "has-text-right"
		},
		{
			"title": "Total",
			"cssClasses": "has-text-right"
		}
	],
	"rows": [
		[
			"[Fût plastique de 260 litres](https://www.ecocube.ch/containers)",
			"1x",
			"25.00 CHF",
			"25.00 CHF"
		],
		[
			"[Mamelon fileté 3/4\"](https://www.jumbo.ch/fr/mamelon-filete-16493?sku=1341534)",
			"3x",
			"2.50 CHF",
			"7.50 CHF"
		],
		[
			"Pièce dont la référence reste encore à trouver",
			"1x",
			"10.20 CHF",
			"10.20 CHF"
		],
		[
			"[Joints intérieurs 3/4\" (3 pièces)](https://www.jumbo.ch/fr/joint-plat-e10x13-15957?sku=1198743)",
			"1x",
			"2.25 CHF",
			"2.25 CHF"
		],
		[
			"[Joints extérieurs 3/4\" (3 pièces)](https://www.jumbo.ch/fr/joint-pour-raccord-visse-16522?sku=1341535)",
			"1x",
			"2.50 CHF",
			"2.50 CHF"
		],
		[
			"[Vanne 3/4\"](https://www.jumbo.ch/fr/raccord-de-tuyau-3-4-12570?sku=1341671)",
			"1x",
			"19.95 CHF",
			"19.95 CHF"
		],
		[
			"[Té 3/4\"](https://www.jumbo.ch/fr/te-16501?sku=1341557)",
			"1x",
			"3.50 CHF",
			"3.50 CHF"
		],
		[
			"[Robinet 3/4\"](https://www.jumbo.ch/fr/vanne-a-passage-12714?sku=1341676)",
			"1x",
			"19.95 CHF",
			"19.95 CHF"
		],
		[
			"[Raccordement Gardena 3/4\"](https://www.jumbo.ch/fr/raccordement-de-robinet-laiton-ig-14569?sku=1233565)",
			"1x",
			"5.95 CHF",
			"5.95 CHF"
		],
		[
			"[Raccord pour tuyau (filetage intérieur 3/4\"; 16mm)](https://www.jumbo.ch/fr/raccord-a-vis-de-flexible-ag-14217?sku=1095145)",
			"1x",
			"3.95 CHF",
			"3.95 CHF"
		]
	]
}
