{
	"headers": [
		{
			"title": "Article",
			"cssClasses": "has-text-left"
		},
		{ 
			"title": "Quantité",
			"cssClasses": "has-text-centered"
		},
		{
			"title": "Prix unitaire",
			"cssClasses": "has-text-right"
		},
		{
			"title": "Total",
			"cssClasses": "has-text-right"
		}
	],
	"rows": [
		[
			"Tuyau d’arrosage 5/8\"",
			"*mesurer la longueur*",
			"—",
			"—"
		],
		[
			"Colliers de serrage 16-25mm",
			"*selon le nombre de bidons*",
			"—",
			"—"
		]
	]
}
