{
	"headers": [
		{
			"title": "Outil",
			"cssClasses": "has-text-left"
		},
		{
			"title": "Commentaires",
			"cssClasses": "has-text-left"
		}
	],
	"rows": [
		[
			"Perceuse / visseuse",
			"Sans-fil"
		],
		[
			"Pioche",
			"—"
		],
		[
			"Pelles",
			"—"
		],
		[
			"Paille",
			"—"
		]
	]
}
